----------------------------------------- 
Se ejecuto el script : Fecha2017-02-01 15:46:40
topic :payment
resource :https://api.mercadolibre.com/collections/notifications/2565348246
id_usuario :6
id_pago :358
----------------------------------------- 
----------------------------------------- 
Se ejecuto el script : Fecha2017-02-01 15:46:50
topic :payment
resource :https://api.mercadolibre.com/collections/notifications/2565606676
id_usuario :6
id_pago :359
----------------------------------------- 
----------------------------------------- 
Se ejecuto el script : Fecha2017-02-01 15:50:10
topic :payment
resource :https://api.mercadolibre.com/collections/notifications/2565464419
id_usuario :6
id_pago :360
----------------------------------------- 
----------------------------------------- 
Se ejecuto el script : Fecha2017-02-01 15:51:00
topic :payment
resource :https://api.mercadolibre.com/collections/notifications/2565350809
id_usuario :6
id_pago :361
----------------------------------------- 
----------------------------------------- 
Se ejecuto el script : Fecha2017-02-15 17:26:01
topic :payment
resource :https://api.mercadolibre.com/collections/notifications/2587399894
id_usuario :6
id_pago :362
----------------------------------------- 
----------------------------------------- 
Se ejecuto el script : Fecha2017-02-15 17:32:38
topic :payment
resource :https://api.mercadolibre.com/collections/notifications/2587633047
id_usuario :6
id_pago :363
----------------------------------------- 
----------------------------------------- 
Se ejecuto el script : Fecha2017-02-17 09:37:56
topic :payment
resource :https://api.mercadolibre.com/collections/notifications/2590226467
id_usuario :6
id_pago :364
----------------------------------------- 
----------------------------------------- 
Se ejecuto el script : Fecha2017-02-17 11:02:16
topic :payment
resource :https://api.mercadolibre.com/collections/notifications/2589989891
id_usuario :6
id_pago :365
----------------------------------------- 
----------------------------------------- 
Se ejecuto el script : Fecha2017-02-17 11:34:28
topic :payment
resource :https://api.mercadolibre.com/collections/notifications/2590298182
id_usuario :6
id_pago :366
----------------------------------------- 
----------------------------------------- 
Se ejecuto el script : Fecha2017-02-17 12:02:33
topic :payment
resource :https://api.mercadolibre.com/collections/notifications/2590317701
id_usuario :6
id_pago :367
----------------------------------------- 
----------------------------------------- 
Se ejecuto el script : Fecha2017-02-17 12:04:22
topic :payment
resource :https://api.mercadolibre.com/collections/notifications/2590318951
id_usuario :6
id_pago :368
----------------------------------------- 
----------------------------------------- 
Se ejecuto el script : Fecha2017-02-17 14:26:21
topic :payment
resource :https://api.mercadolibre.com/collections/notifications/2590488585
id_usuario :6
id_pago :369
----------------------------------------- 
----------------------------------------- 
Se ejecuto el script : Fecha2017-02-17 14:28:48
topic :payment
resource :https://api.mercadolibre.com/collections/notifications/2590489354
id_usuario :6
id_pago :370
----------------------------------------- 
----------------------------------------- 
Se ejecuto el script : Fecha2017-02-17 16:16:46
topic :payment
resource :https://api.mercadolibre.com/collections/notifications/2590657688
id_usuario :6
id_pago :371
----------------------------------------- 
----------------------------------------- 
Se ejecuto el script : Fecha2017-02-17 16:47:16
topic :payment
resource :https://api.mercadolibre.com/collections/notifications/2590671010
id_usuario :6
id_pago :372
----------------------------------------- 
----------------------------------------- 
Se ejecuto el script : Fecha2017-02-17 17:34:13
topic :payment
resource :https://api.mercadolibre.com/collections/notifications/2590690902
id_usuario :11
id_pago :373
----------------------------------------- 
----------------------------------------- 
Se ejecuto el script : Fecha2017-02-17 17:50:51
topic :payment
resource :https://api.mercadolibre.com/collections/notifications/2590698344
id_usuario :6
id_pago :374
----------------------------------------- 
----------------------------------------- 
Se ejecuto el script : Fecha2017-02-21 10:51:54
topic :payment
resource :https://api.mercadolibre.com/collections/notifications/2595781409
id_usuario :11
id_pago :375
----------------------------------------- 
----------------------------------------- 
Se ejecuto el script : Fecha2017-03-01 09:46:38
topic :payment
resource :https://api.mercadolibre.com/collections/notifications/2605973289
id_usuario :13
id_pago :376
----------------------------------------- 
----------------------------------------- 
Se ejecuto el script : Fecha2017-03-01 09:51:17
topic :payment
resource :https://api.mercadolibre.com/collections/notifications/2605976819
id_usuario :13
id_pago :377
----------------------------------------- 
----------------------------------------- 
Se ejecuto el script : Fecha2017-03-01 11:35:49
topic :payment
resource :https://api.mercadolibre.com/collections/notifications/2605747193
id_usuario :1
id_pago :378
----------------------------------------- 
----------------------------------------- 
Se ejecuto el script : Fecha2017-03-02 14:19:15
topic :payment
resource :https://api.mercadolibre.com/collections/notifications/2608152555
id_usuario :1
id_pago :379
----------------------------------------- 
----------------------------------------- 
Se ejecuto el script : Fecha2017-03-06 14:54:08
topic :payment
resource :https://api.mercadolibre.com/collections/notifications/2614457789
id_usuario :6
id_pago :380
----------------------------------------- 
----------------------------------------- 
Se ejecuto el script : Fecha2017-03-10 12:50:04
topic :payment
resource :https://api.mercadolibre.com/collections/notifications/2621796374
id_usuario :6
id_pago :381
----------------------------------------- 
----------------------------------------- 
Se ejecuto el script : Fecha2017-03-10 19:25:01
topic :payment
resource :https://api.mercadolibre.com/collections/notifications/2622067777
id_usuario :9
id_pago :382
----------------------------------------- 
----------------------------------------- 
Se ejecuto el script : Fecha2017-03-30 10:33:20
topic :payment
resource :https://api.mercadolibre.com/collections/notifications/2655248003
id_usuario :16
id_pago :386
----------------------------------------- 
----------------------------------------- 
Se ejecuto el script : Fecha2017-03-30 12:26:47
topic :payment
resource :https://api.mercadolibre.com/collections/notifications/2654994278
id_usuario :6
id_pago :390
----------------------------------------- 
----------------------------------------- 
Se ejecuto el script : Fecha2017-03-31 18:47:27
topic :payment
resource :https://api.mercadolibre.com/collections/notifications/2655314834
id_usuario :9
id_pago :389
----------------------------------------- 
----------------------------------------- 
Se ejecuto el script : Fecha2017-04-06 16:39:42
topic :payment
resource :https://api.mercadolibre.com/collections/notifications/2667557715
id_usuario :6
id_pago :392
----------------------------------------- 
----------------------------------------- 
Se ejecuto el script : Fecha2017-04-06 16:41:55
topic :payment
resource :https://api.mercadolibre.com/collections/notifications/2667374000
id_usuario :6
id_pago :393
----------------------------------------- 
----------------------------------------- 
Se ejecuto el script : Fecha2017-04-06 16:50:07
topic :payment
resource :https://api.mercadolibre.com/collections/notifications/2667565294
id_usuario :6
id_pago :394
----------------------------------------- 
----------------------------------------- 
Se ejecuto el script : Fecha2017-04-06 16:57:17
topic :payment
resource :https://api.mercadolibre.com/collections/notifications/2667570247
id_usuario :6
id_pago :395
----------------------------------------- 
----------------------------------------- 
Se ejecuto el script : Fecha2017-04-17 17:54:25
topic :payment
resource :https://api.mercadolibre.com/collections/notifications/2684507601
id_usuario :16
id_pago :397
----------------------------------------- 
----------------------------------------- 
Se ejecuto el script : Fecha2017-04-18 12:24:43
topic :payment
resource :https://api.mercadolibre.com/collections/notifications/2685604124
id_usuario :11
id_pago :400
----------------------------------------- 
----------------------------------------- 
Se ejecuto el script : Fecha2017-04-20 14:01:13
topic :payment
resource :https://api.mercadolibre.com/collections/notifications/2689752526
id_usuario :6
id_pago :401
----------------------------------------- 
